<?xml version="1.0" encoding="UTF-8"?>
<Project>
   <description></description>
   <name>betaregressionautomation</name>
   <tag></tag>
   <UUID>169f3941-ae06-438c-96af-e3a203d72914</UUID>
   <migratedVersion>5.4.0</migratedVersion>
   <pageLoadTimeout>0</pageLoadTimeout>
</Project>
